Chapter 10. Model Comparison and Hierarchical Modeling
…
Im not aware that we can do this within the brms framework. If Im in error and you know how, please share your code. However, we do have options. Consider Gaussian-like data with thick tails. We might generate some like this:

# how many draws would you like?
n <- 1e3

set.seed(10.33)
(d <- tibble(y = rt(n, df = 7)))

## # A tibble: 1,000 x 1
##          y
##      <dbl>
##  1  0.0214
##  2 -0.987 
##  3  0.646 
##  4 -0.237 
##  5  0.977 
##  6 -0.200 
##  7  0.781 
##  8 -1.09  
##  9  1.83  
## 10 -0.682 
## # ... with 990 more rows
…
