…
``` r
library(tidyverse)

sequence_length <- 100

d <-
  tibble(mu    = rep(c(87.8, 100, 112), each = 3)    %>% rep(., times = sequence_length),
         sigma = rep(c(7.35, 12.2, 18.4), times = 3) %>% rep(., times = sequence_length),
         y     = seq(from = 50, to = 150, length.out = sequence_length) %>% rep(., each = 9)) 

d
```

    ## # A tibble: 900 x 3
    ##       mu sigma     y
    ##    <dbl> <dbl> <dbl>
    ##  1  87.8  7.35  50  
    ##  2  87.8 12.2   50  
    ##  3  87.8 18.4   50  
    ##  4 100    7.35  50  
    ##  5 100   12.2   50  
    ##  6 100   18.4   50  
    ##  7 112    7.35  50  
    ##  8 112   12.2   50  
    ##  9 112   18.4   50  
    ## 10  87.8  7.35  51.0
    ## # ... with 890 more rows
…
d <-
  tibble(nu = c(Inf, 4, 2, 1)) %>% 
  mutate(t = map(nu, t_maker)) %>% 
  unnest() %>% 
  # this line is unnecessary, but will help with the plot legend
  mutate(nu = factor(nu, levels = c("Inf", "4", "2", "1")))

d
```

    ## # A tibble: 2,000 x 3
    ##    nu        y  density
    ##    <fct> <dbl>    <dbl>
    ##  1 Inf   -8    5.05e-15
    ##  2 Inf   -7.97 6.53e-15
    ##  3 Inf   -7.94 8.42e-15
    ##  4 Inf   -7.90 1.09e-14
    ##  5 Inf   -7.87 1.40e-14
    ##  6 Inf   -7.84 1.80e-14
    ##  7 Inf   -7.81 2.31e-14
    ##  8 Inf   -7.78 2.97e-14
    ##  9 Inf   -7.74 3.81e-14
    ## 10 Inf   -7.71 4.88e-14
    ## # ... with 1,990 more rows
…
