…
We have an alternative if you wanted to stay within the **tidyverse**. To my knowledge, the fastest way to make the transformation is to first use ` as.tbl_cube()` and follow that up with `as_tibble()`. The [`as.tbl_cube()` function](https://rdrr.io/cran/cubelyr/man/as.tbl_cube.html) will convert the `a` matrix into a tbl_cube. We will use the `met_name` argument to determine the name of the measure assessed in the data. Since the default is for `as.tbl_cube()` to name the measure name as `.`, it seemed `value` was a more descriptive choice. We'll then use the `as_tibble()` function to convert our `tbl_cube` object into a tidy tibble.


```r
library(cubelyr)

a %>% 
  as.tbl_cube(met_name = "value") %>% 
  as_tibble()
```

```
## # A tibble: 24 × 4
##    RowDimName ColDimName LayDimName value
##    <chr>      <chr>      <chr>      <int>
##  1 r1         c1         l1             1
##  2 r2         c1         l1             2
##  3 r3         c1         l1             3
##  4 r1         c2         l1             4
##  5 r2         c2         l1             5
##  6 r3         c2         l1             6
##  7 r1         c3         l1             7
##  8 r2         c3         l1             8
##  9 r3         c3         l1             9
## 10 r1         c4         l1            10
## # … with 14 more rows
```
…
