…
<img src="19_files/figure-gfm/unnamed-chunk-61-1.png" width="384" style="display: block; margin: auto;" />

Yep, sure did! Now our between-group comparisons should be more precise. Heck, if we wanted to we could even make a difference plot.


```r
tibble(sigma1 = posterior_samples(fit19.1) %>% pull(sigma),
       sigma5 = posterior_samples(fit19.5) %>% pull(sigma))
```

```
## # A tibble: 12,000 x 2
##    sigma1 sigma5
##     <dbl>  <dbl>
##  1   14.0   9.85
##  2   13.6  11.1 
##  3   14.0  10.4 
##  4   13.7  10.3 
##  5   14.5  11.5 
##  6   15.2  10.4 
##  7   15.4  11.9 
##  8   16.3  11.9 
##  9   16.2  11.4 
## 10   15.7   9.91
## # … with 11,990 more rows
```
…
