…
Now we can use our `t1` threshold value to make a right censored version of the `y` column called `y1`. We'll also make a character value listing out a row's censoring status in nominal terms.


```r
d <-
  d %>% 
  mutate(y1   = if_else(y > t1, t1, y),
         cen1 = if_else(y > t1, "right", "none"))

d
```

```
## # A tibble: 500 x 3
##        y    y1 cen1 
##    <dbl> <dbl> <chr>
##  1  96.8  96.8 none 
##  2  84.4  84.4 none 
##  3  82.7  82.7 none 
##  4 105.  105.  none 
##  5  77.5  77.5 none 
##  6  93.3  93.3 none 
##  7 126.  106   right
##  8 108.  106   right
##  9 101.  101.  none 
## 10  99.1  99.1 none 
## # … with 490 more rows
```

When the values in `y1` are not censored, we see `cen1 == "none"`. For all cases where the original `y` value exceeded the `t1` threshold (i.e., 106), `y1 == 106` and `cen1 == "right"`. We are using the terms `"none"` and `"right"` because they are based on the block quote from the **brms** reference manual. For plotting purposes, we'll make a new variable, `y_na`, that only has values for which `cen1 == "none"`.


```r
d <-
  d %>% 
  mutate(y_na = ifelse(cen1 == "none", y, NA))

d
```

```
## # A tibble: 500 x 4
##        y    y1 cen1   y_na
##    <dbl> <dbl> <chr> <dbl>
##  1  96.8  96.8 none   96.8
##  2  84.4  84.4 none   84.4
##  3  82.7  82.7 none   82.7
##  4 105.  105.  none  105. 
##  5  77.5  77.5 none   77.5
##  6  93.3  93.3 none   93.3
##  7 126.  106   right  NA  
##  8 108.  106   right  NA  
##  9 101.  101.  none  101. 
## 10  99.1  99.1 none   99.1
## # … with 490 more rows
```
…
```r
d <-
  d %>% 
  mutate(y2   = if_else(y >= t2 & y < t3, t2, y),
         y3   = if_else(y >= t2 & y < t3, t3, y),
         cen2 = if_else(y >= t2 & y < t3, "interval", "none")) %>% 
  mutate(y_na = ifelse(cen2 == "none", y, NA))

d
```

```
## # A tibble: 500 x 7
##        y    y1 cen1   y_na    y2    y3 cen2    
##    <dbl> <dbl> <chr> <dbl> <dbl> <dbl> <chr>   
##  1  96.8  96.8 none   NA    94   100   interval
##  2  84.4  84.4 none   84.4  84.4  84.4 none    
##  3  82.7  82.7 none   82.7  82.7  82.7 none    
##  4 105.  105.  none  105.  105.  105.  none    
##  5  77.5  77.5 none   77.5  77.5  77.5 none    
##  6  93.3  93.3 none   93.3  93.3  93.3 none    
##  7 126.  106   right 126.  126.  126.  none    
##  8 108.  106   right 108.  108.  108.  none    
##  9 101.  101.  none  101.  101.  101.  none    
## 10  99.1  99.1 none   NA    94   100   interval
## # … with 490 more rows
```
…
```r
d <-
  d %>% 
  mutate(y4   = if_else(y >= t2 & y < t3, t2, 
                        if_else(y > t1, t1, y)),
         y5   = if_else(y >= t2 & y < t3, t3, y),
         cen3 = if_else(y >= t2 & y < t3, "interval",
                       if_else(y > t1, "right", "none"))) %>% 
  mutate(y_na = ifelse(cen3 == "none", y, NA))

d
```

```
## # A tibble: 500 x 10
##        y    y1 cen1   y_na    y2    y3 cen2        y4    y5 cen3    
##    <dbl> <dbl> <chr> <dbl> <dbl> <dbl> <chr>    <dbl> <dbl> <chr>   
##  1  96.8  96.8 none   NA    94   100   interval  94   100   interval
##  2  84.4  84.4 none   84.4  84.4  84.4 none      84.4  84.4 none    
##  3  82.7  82.7 none   82.7  82.7  82.7 none      82.7  82.7 none    
##  4 105.  105.  none  105.  105.  105.  none     105.  105.  none    
##  5  77.5  77.5 none   77.5  77.5  77.5 none      77.5  77.5 none    
##  6  93.3  93.3 none   93.3  93.3  93.3 none      93.3  93.3 none    
##  7 126.  106   right  NA   126.  126.  none     106   126.  right   
##  8 108.  106   right  NA   108.  108.  none     106   108.  right   
##  9 101.  101.  none  101.  101.  101.  none     101.  101.  none    
## 10  99.1  99.1 none   NA    94   100   interval  94   100   interval
## # … with 490 more rows
```
…
