7 Markov Chain Monte Carlo | Doing Bayesian Data Analysis in brms and the tidyverse
…
  return(metrop_2d_data)
  
}

Now we’ve defined my_bivariate_metropolis() let’s apply it to our data with proposal_sd == 0.02 and proposal_sd == 0.2. We’ll save the results as mh.

mh <-
  tibble(proposal_sd = c(0.02, 0.2)) %>% 
  mutate(mh = map(proposal_sd, my_bivariate_metropolis)) %>% 
  unnest(mh)

mh

## # A tibble: 100,000 x 6
##    proposal_sd  iter accepted_traj1 accepted_traj2 n_accepted n_rejected
##          <dbl> <int>          <dbl>          <dbl>      <dbl>      <dbl>
##  1        0.02     1          0.5            0.5        46401       3598
##  2        0.02     2          0.535          0.486      46401       3598
##  3        0.02     3          0.541          0.477      46401       3598
##  4        0.02     4          0.507          0.495      46401       3598
##  5        0.02     5          0.511          0.484      46401       3598
##  6        0.02     6          0.522          0.500      46401       3598
##  7        0.02     7          0.544          0.491      46401       3598
##  8        0.02     8          0.572          0.473      46401       3598
##  9        0.02     9          0.591          0.509      46401       3598
## 10        0.02    10          0.579          0.513      46401       3598
## # … with 99,990 more rows
…
