19 Metric Predicted Variable with One Nominal Predictor | Doing Bayesian Data Analysis in brms and the tidyverse
…
Yep, sure did! Now our between-group comparisons should be more precise. Heck, if we wanted to we could even make a difference plot.

tibble(sigma1 = posterior_samples(fit19.1) %>% pull(sigma),
       sigma5 = posterior_samples(fit19.5) %>% pull(sigma))

## # A tibble: 12,000 x 2
##    sigma1 sigma5
##     <dbl>  <dbl>
##  1   13.6   10.9
##  2   13.9   10.1
##  3   14.0   10.1
##  4   14.5   10.3
##  5   14.6   10.4
##  6   14.6   10.4
##  7   14.1   10.9
##  8   14.2   11.0
##  9   14.2   10.7
## 10   14.4   10.6
## # … with 11,990 more rows
…
