11 Null Hypothesis Significance Testing | Doing Bayesian Data Analysis in brms and the tidyverse
…
n_iter <- 1

flips <-
  tibble(iter = 1:n_iter,
         n    = rpois(n_iter, lambda = 24)) %>% 
  mutate(z = map(n, ~seq(from = 0, to = ., by = 1))) %>% 
  unnest(z) %>% 
  mutate(n_choose_z = n_choose_z(n, z)) %>% 
  mutate(`p(z/N)`                = n_choose_z / sum(n_choose_z),
         `Sample Proportion z/N` = z / n) 

flips

## # A tibble: 22 × 6
##     iter     n     z n_choose_z    `p(z/N)` `Sample Proportion z/N`
##    <int> <int> <dbl>      <dbl>       <dbl>                   <dbl>
##  1     1    21     0          1 0.000000477                  0     
##  2     1    21     1         21 0.0000100                    0.0476
##  3     1    21     2        210 0.000100                     0.0952
##  4     1    21     3       1330 0.000634                     0.143 
##  5     1    21     4       5985 0.00285                      0.190 
##  6     1    21     5      20349 0.00970                      0.238 
##  7     1    21     6      54264 0.0259                       0.286 
##  8     1    21     7     116280 0.0554                       0.333 
##  9     1    21     8     203490 0.0970                       0.381 
## 10     1    21     9     293930 0.140                        0.429 
## # … with 12 more rows
…
