25 Tools in the Trunk | Doing Bayesian Data Analysis in brms and the tidyverse
…
In the case where the “values above 106 are censored,” we need to save a single threshold value. We’ll call it t1.

t1 <- 106

Now we can use our t1 threshold value to make a right censored version of the y column called y1. We’ll also make a character value listing out a row’s censoring status in nominal terms.

d <-
  d %>% 
  mutate(y1   = if_else(y > t1, t1, y),
         cen1 = if_else(y > t1, "right", "none"))

d

## # A tibble: 500 x 3
##        y    y1 cen1 
##    <dbl> <dbl> <chr>
##  1  96.8  96.8 none 
##  2  84.4  84.4 none 
##  3  82.7  82.7 none 
##  4 105.  105.  none 
##  5  77.5  77.5 none 
##  6  93.3  93.3 none 
##  7 126.  106   right
##  8 108.  106   right
##  9 101.  101.  none 
## 10  99.1  99.1 none 
## # … with 490 more rows

When the values in y1 are not censored, we see cen1 == "none". For all cases where the original y value exceeded the t1 threshold (i.e., 106), y1 == 106 and cen1 == "right". We are using the terms "none" and "right" because they are based on the block quote from the brms reference manual. For plotting purposes, we’ll make a new variable, y_na, that only has values for which cen1 == "none".

d <-
  d %>% 
  mutate(y_na = ifelse(cen1 == "none", y, NA))

d

## # A tibble: 500 x 4
##        y    y1 cen1   y_na
##    <dbl> <dbl> <chr> <dbl>
##  1  96.8  96.8 none   96.8
##  2  84.4  84.4 none   84.4
##  3  82.7  82.7 none   82.7
##  4 105.  105.  none  105. 
##  5  77.5  77.5 none   77.5
##  6  93.3  93.3 none   93.3
##  7 126.  106   right  NA  
##  8 108.  106   right  NA  
##  9 101.  101.  none  101. 
## 10  99.1  99.1 none   99.1
## # … with 490 more rows
…
For interval censored data, a second variable (let’s call it y2) has to be passed to cens. In this case, the formula has the structure y | cens(censored,y2) ~ predictors. While the lower bounds are given in y, the upper bounds are given in y2 for interval censored data. Intervals are assumed to be open on the left and closed on the right: (y,y2]

It’s a little unclear, to me, if this is how Kruschke defined his intervals, but since we’re working with brms we’ll just use this convention. Thus, we will define “values in the interval between 94 and 100” as y >= t2 & y < t3. Here we’ll follow the brms convention and define a new variable y2 for our lower bound and y3 for our upper bound. Additionally, the new cen2 variable will tell us whether a case is interval censored ("interval") or not ("none"). We have also redefined y_na in terms of our cen2 variable.

d <-
  d %>% 
  mutate(y2   = if_else(y >= t2 & y < t3, t2, y),
         y3   = if_else(y >= t2 & y < t3, t3, y),
         cen2 = if_else(y >= t2 & y < t3, "interval", "none")) %>% 
  mutate(y_na = ifelse(cen2 == "none", y, NA))

d

## # A tibble: 500 x 7
##        y    y1 cen1   y_na    y2    y3 cen2    
##    <dbl> <dbl> <chr> <dbl> <dbl> <dbl> <chr>   
##  1  96.8  96.8 none   NA    94   100   interval
##  2  84.4  84.4 none   84.4  84.4  84.4 none    
##  3  82.7  82.7 none   82.7  82.7  82.7 none    
##  4 105.  105.  none  105.  105.  105.  none    
##  5  77.5  77.5 none   77.5  77.5  77.5 none    
##  6  93.3  93.3 none   93.3  93.3  93.3 none    
##  7 126.  106   right 126.  126.  126.  none    
##  8 108.  106   right 108.  108.  108.  none    
##  9 101.  101.  none  101.  101.  101.  none    
## 10  99.1  99.1 none   NA    94   100   interval
## # … with 490 more rows
…
Okay, let’s put what we’ve learned together and practice with data that are both right AND interval censored. This is going to require some tricky coding on our part. Since interval censoring is in play, we’ll need two y variables, again. When the data are indeed interval censored, their lower and upper bounds will be depicted by y4 and y5, respectively. When the data are right censored, y4 will contain the threshold 106 and y5 will contain the original value from y. All this tricky information will be indexed in our nominal variable cen3. Once again, we update our y_na variable, too.

d <-
  d %>% 
  mutate(y4   = if_else(y >= t2 & y < t3, t2, 
                        if_else(y > t1, t1, y)),
         y5   = if_else(y >= t2 & y < t3, t3, y),
         cen3 = if_else(y >= t2 & y < t3, "interval",
                       if_else(y > t1, "right", "none"))) %>% 
  mutate(y_na = ifelse(cen3 == "none", y, NA))

d

## # A tibble: 500 x 10
##        y    y1 cen1   y_na    y2    y3 cen2        y4    y5 cen3    
##    <dbl> <dbl> <chr> <dbl> <dbl> <dbl> <chr>    <dbl> <dbl> <chr>   
##  1  96.8  96.8 none   NA    94   100   interval  94   100   interval
##  2  84.4  84.4 none   84.4  84.4  84.4 none      84.4  84.4 none    
##  3  82.7  82.7 none   82.7  82.7  82.7 none      82.7  82.7 none    
##  4 105.  105.  none  105.  105.  105.  none     105.  105.  none    
##  5  77.5  77.5 none   77.5  77.5  77.5 none      77.5  77.5 none    
##  6  93.3  93.3 none   93.3  93.3  93.3 none      93.3  93.3 none    
##  7 126.  106   right  NA   126.  126.  none     106   126.  right   
##  8 108.  106   right  NA   108.  108.  none     106   108.  right   
##  9 101.  101.  none  101.  101.  101.  none     101.  101.  none    
## 10  99.1  99.1 none   NA    94   100   interval  94   100   interval
## # … with 490 more rows
…
